-T Docker

- Heading 1
Here's some shit about docker.
And another crappy line.
-- Heading 2
--- Heading 3
-C
fun() {
    some code;
}
--C

- JS
-C:js
$(document).ready(function() {
  $('pre code').each(function(i, block) {
    hljs.highlightBlock(block);
  });
});
$(document).ready(function() {
  $('pre code').each(function(i, block) {
    hljs.highlightBlock(block);
  });
});
$(document).ready(function() {
  $('pre code').each(function(i, block) {
    hljs.highlightBlock(block);
  });
});

$(document).ready(function() {
  $('pre code').each(function(i, block) {
    hljs.highlightBlock(block);
  });
});
--C